{
  "name": "RARITY AI ARTISTS",
  "description": "Where the talents of ai proudly create masterpieces",
  "image": "https://ai-artists-nfts.com/assets/logo.svg",
  "external_url": "https://ai-artists-nfts.com"
}
